{
	"Foreach loop":
	{
		"prefix": "foreach",
		"description": "snippet",
		"body":
		[
			"foreach ${1:entity}:",
			"{",
			"\t$2",
			"}"
		]
	},
	"Selection":
	{
		"prefix": "if",
		"description": "snippet",
		"body":
		[
			"if ${1:condition}",
			"{",
			"\t$2",
			"}"
		]
	},
	"Assignment":
	{
		"prefix": "set",
		"description": "snippet",
		"body":
		[
			"${1:atom} = ${2:expression}"
		]
	},
	"System":
	{
		"prefix": "system",
		"description": "snippet",
		"body":
		[
			"${1:name}",
			"{",
			"\t$2",
			"}"
		]
	}
}
